Position: -412.89111328125, 1214.44140625, 325.6415710449219 | parkingObserwatorium
Position: -72.4970474243164, 880.6953735351562, 235.53759765625 | rondoObokObserwatorium
Position: -260.8099365234375, 2179.572265625, 130.66944885253906 | przystanekWGorach
Position: -94.76891326904297, 1947.0377197265625, 189.4927520751953 | punktWGorach
Position: 789.6124877929688, 1283.61083984375, 360.2142333984375 | goraVinewood
Position: 1410.210693359375, 1044.317138671875, 114.19927978515625 | MadrazoFarma1
Position: 1507.2391357421875, 1089.7091064453125, 113.98767852783203 | MadrazoFarma2
Position: 1871.516357421875, 2618.352783203125, 45.5161247253418 | WiezienieParking
Position: 2000.9847412109375, 3073.626220703125, 47.00058364868164 | parking kolo baru chenga z fabuły na pustyni
Position: 1737.9317626953125, 3290.03466796875, 41.0864143371582 | lotnisko wjazd do hangaru
Position: 646.17041015625, 3503.772705078125, 33.85976028442383 | punkt startowy 1
Position: 346.2528381347656, 3417.18701171875, 36.30973815917969 | parking biuro 1
Position: 644.0925903320312, 3498.65283203125, 33.86107635498047 | samochod
Position: 345.944091796875, 3423.988525390625, 37.70307159423828 | Pickup przyczepy
Position: 304.7594909667969, 2831.243896484375, 43.66659164428711 | huta
Position: 740.3291625976562, 2522.040283203125, 72.98900604248047 | parking obok huty
Position: 856.7418212890625, 2197.13134765625, 51.8581657409668 | parking Odbior naczepy
Position: 1120.4644775390625, 241.5503692626953, 80.72132110595703 | parking tor wyscigow
Position: 954.6183471679688, 161.88478088378906, 80.74039459228516 | parking wyscigow konnych 2
Position: 901.0401611328125, -95.16024017333984, 78.64131164550781 | parking kasyno
Position: 585.2009887695312, -490.62225341796875, 24.627788543701172 | parking kolo kanalu
Position: 484.3459167480469, -1336.8443603515625, 29.204492568969727 | parking fabula misja laweta
Position: 909.3377075195312, -1566.14306640625, 30.73444175720215 | parking import export 1
Position: 839.010986328125, -1979.005859375, 29.15863037109375 | parking fivem transport server
Position: 823.6312866210938, -2125.63916015625, 29.168180465698242 | parking obok amunation obok parkingu fivem
Position: 1008.2672729492188, -2336.80615234375, 30.436317443847656 | parking obok magazynu
Position: 1539.90673828125, -2074.33544921875, 77.12197875976562 | parking magazyn wiekszy
Position: 2562.839599609375, -426.2480773925781, 92.87579345703125 | parking noose
Position: 2726.314697265625, 1337.743408203125, 24.390827178955078 | parking elektrownia wiekszy
Position: 2667.71826171875, 1712.1478271484375, 24.36180877685547 | parking elektrownia mniejszy
Position: 2770.092529296875, 2804.74267578125, 41.25816345214844 | kopalnia
Position: 2856.865966796875, 4414.4306640625, 48.95960235595703 | melina koka duza ciezarowka
Position: 2413.8193359375, 4990.67041015625, 46.13113021850586 | farma 1
Position: 1905.2322998046875, 4922.86474609375, 48.73647689819336 | farma altana
Position: 1350.208984375, 4373.16064453125, 44.185733795166016 | napad helikopter
Position: -511.44671630859375, 5242.2158203125, 80.24285125732422 | tartak pod mount chilliad
Position: -334.982666015625, 6139.6318359375, 31.321943283081055 | paleto kosciol
Position: 60.92534637451172, 6538.66162109375, 31.360177993774414 | paleto budowa
Position: 129.3395538330078, 6609.40576171875, 32.28066635131836 | paleto stacja
Position: 2202.344482421875, 5576.279296875, 53.70354461669922 | paleto ukryta droga kolo autostrady
Position: 2126.814697265625, 4817.1337890625, 41.1511344909668 | lotnisko mckenzie 
Position: -1667.395263671875, 3076.52783203125, 31.806535720825195 | oczyszczalnia zankudo
Position: -2194.639892578125, 3494.6611328125, 29.187658309936523 | oczyszczalnia zankudo z przodu
Position: -2449.682373046875, 2960.828857421875, 32.6905403137207 | fort zankudo parking
Position: -1363.6138916015625, -12.109723091125488, 53.479026794433594 | golf club parking
Position: -1057.2958984375, -3486.17626953125, 13.42524528503418 | lsa parking 
Position: -1267.5133056640625, -3397.8837890625, 13.223065376281738 | lsa hangar titan
Position: -1517.5357666015625, -3271.274169921875, 13.228583335876465 | lsa parking 2
Position: 3571.26904296875, 3787.811767578125, 29.86764144897461 | human labs front parking
Position: 3567.99267578125, 3664.44873046875, 33.76327133178711 | human labs garaz
Position: 2488.624267578125, 4961.92578125, 44.77733612060547 | rancho o'neil szopa
Position: -2343.397705078125, 269.51171875, 169.3555450439453 | obserwatorium 2 parking
Position: -521.8082275390625, -2814.9296875, 5.842589855194092 | doki pierwsze blisko lotniska
Position: 148.30470275878906, -2822.2197265625, 5.851666450500488 | doki pod klubem
Position: 1272.3798828125, -3301.85302734375, 5.775706768035889 | duze doki
Position: 85.56678771972656, -2484.463623046875, 5.868988037109375 | zamkniete doki
